Image_23_59_53_978042_.jpg -1
Image_23_59_45_025925_.jpg -1
Image_23_59_08_705694_.jpg -1
Image_23_57_32_553038_.jpg -1
Image_23_57_22_984737_.jpg 1
Image_23_57_20_217969_.jpg 1
Image_23_56_07_532452_.jpg 1
Image_23_55_35_702261_.jpg -1
Image_23_55_25_610719_.jpg -1
Image_23_55_22_810414_.jpg -1
Image_23_55_21_691156_.jpg -1
Image_23_55_18_894510_.jpg -1
Image_23_54_46_908510_.jpg -1
Image_23_54_42_411530_.jpg -1
Image_23_54_31_767027_.jpg -1
Image_23_53_52_813886_.jpg -1
Image_23_53_41_529196_.jpg -1
Image_23_53_31_449416_.jpg -1
Image_23_53_07_258705_.jpg 1
Image_23_52_36_725633_.jpg -1
Image_23_52_20_471476_.jpg -1
Image_23_52_17_633085_.jpg 1
Image_23_52_11_978349_.jpg -1
Image_23_51_05_403472_.jpg -1
Image_23_50_37_889356_.jpg -1
Image_23_50_37_333427_.jpg -1
Image_23_49_52_712611_.jpg -1
Image_23_49_22_101313_.jpg -1
Image_23_49_16_385891_.jpg -1
Image_23_48_56_102966_.jpg -1
Image_23_48_52_688741_.jpg -1
Image_23_48_52_131536_.jpg -1
Image_23_48_30_695949_.jpg -1
Image_23_48_18_816617_.jpg -1
Image_23_48_18_262624_.jpg -1
Image_23_48_08_108880_.jpg -1
Image_23_48_07_538738_.jpg -1
Image_23_48_03_037645_.jpg -1
Image_23_48_02_463929_.jpg -1
Image_23_47_46_310493_.jpg -1
Image_23_47_31_060221_.jpg -1
Image_23_46_20_683557_.jpg -1
Image_23_46_19_557444_.jpg -1
Image_23_46_13_904186_.jpg -1
Image_23_46_13_352746_.jpg -1
Image_23_46_00_429924_.jpg -1
Image_23_45_58_742767_.jpg -1
Image_23_45_53_131332_.jpg -1
Image_23_45_52_556521_.jpg -1
Image_23_45_48_064540_.jpg -1
Image_23_45_46_395074_.jpg -1
Image_23_45_45_840458_.jpg -1
Image_23_45_41_921108_.jpg -1
Image_23_45_37_412719_.jpg -1
Image_23_45_27_879017_.jpg -1
Image_23_45_25_114817_.jpg -1
Image_23_45_16_205336_.jpg -1
Image_23_45_06_594033_.jpg -1
Image_23_45_02_096673_.jpg -1
Image_23_45_00_414257_.jpg 1
Image_23_44_45_757454_.jpg -1
Image_23_44_26_050871_.jpg -1
Image_23_42_49_216097_.jpg -1
Image_23_42_46_407774_.jpg -1
Image_23_41_47_503162_.jpg -1
Image_23_41_39_071756_.jpg -1
Image_23_41_28_305472_.jpg -1
Image_23_39_18_286658_.jpg -1
Image_23_39_10_410581_.jpg -1
Image_23_38_33_778414_.jpg -1
Image_23_38_30_423276_.jpg -1
Image_23_38_23_692191_.jpg -1
Image_23_38_08_473794_.jpg -1
Image_23_38_03_933659_.jpg -1
Image_23_37_58_934587_.jpg -1
Image_23_37_50_588465_.jpg -1
Image_23_37_27_720185_.jpg 1
Image_23_37_15_902697_.jpg -1
Image_23_37_13_651843_.jpg -1
Image_23_36_53_037992_.jpg -1
Image_23_36_49_098188_.jpg -1
Image_23_36_41_273253_.jpg -1
Image_23_36_40_718158_.jpg -1
Image_23_36_27_332314_.jpg -1
Image_23_36_05_459267_.jpg -1
Image_23_35_59_289576_.jpg -1
Image_23_35_48_644171_.jpg -1
Image_23_35_43_645857_.jpg -1
Image_23_35_36_937975_.jpg -1
Image_23_35_23_495580_.jpg -1
Image_23_34_54_374146_.jpg -1
Image_23_34_47_661584_.jpg -1
Image_23_34_45_453120_.jpg -1
Image_23_34_44_902389_.jpg -1
Image_23_34_23_043267_.jpg -1
Image_23_34_21_359669_.jpg -1
Image_23_34_17_427717_.jpg -1
Image_23_34_02_327058_.jpg -1
Image_23_34_00_042687_.jpg -1
Image_23_33_55_533329_.jpg -1
Image_23_33_48_791505_.jpg -1
Image_23_33_47_114456_.jpg -1
Image_23_33_33_176544_.jpg -1
Image_23_33_32_071843_.jpg -1
Image_23_33_03_510568_.jpg -1
Image_23_33_00_700547_.jpg -1
Image_23_32_56_747107_.jpg -1
Image_23_32_31_469064_.jpg -1
Image_23_31_40_410809_.jpg -1
Image_23_31_28_095487_.jpg -1
Image_23_30_43_491949_.jpg -1
Image_23_30_26_135356_.jpg 1
Image_23_30_03_804984_.jpg 1
Image_23_29_52_057392_.jpg -1
Image_23_27_26_532577_.jpg -1
Image_23_27_23_704005_.jpg -1
Image_23_26_56_793302_.jpg -1
Image_23_26_39_477034_.jpg -1
Image_23_25_12_955598_.jpg -1
Image_23_23_56_459837_.jpg -1
Image_23_22_42_604878_.jpg -1
Image_23_22_26_766530_.jpg -1
Image_23_22_16_070526_.jpg -1
Image_23_22_13_241798_.jpg -1
Image_23_21_59_130191_.jpg -1
Image_23_21_57_454059_.jpg -1
Image_23_21_32_172088_.jpg -1
Image_23_21_29_954179_.jpg -1
Image_23_21_23_210329_.jpg -1
Image_23_21_11_968843_.jpg -1
Image_23_21_08_069250_.jpg -1
Image_23_21_00_718225_.jpg -1
Image_23_20_50_651979_.jpg -1
Image_23_20_13_587276_.jpg -1
Image_23_20_10_219235_.jpg 1
Image_23_15_56_038025_.jpg 1
Image_23_15_44_370660_.jpg 1
Image_23_08_28_226132_.jpg -1
Image_23_08_27_672270_.jpg -1
Image_23_08_22_676312_.jpg 1
Image_23_06_12_402350_.jpg -1
Image_23_05_36_377670_.jpg 1
Image_23_05_00_835560_.jpg 1
Image_23_04_43_460981_.jpg -1
Image_23_04_14_346810_.jpg -1
Image_23_04_13_794559_.jpg -1
Image_23_03_16_634748_.jpg -1
Image_23_02_54_816102_.jpg -1
Image_23_00_02_586014_.jpg 1
Image_22_59_54_220153_.jpg 1
Image_22_59_10_121771_.jpg -1
Image_22_59_06_778373_.jpg -1
Image_22_59_01_782941_.jpg -1
Image_22_58_41_347459_.jpg -1
Image_03_54_35_028985_.jpg -1
Image_03_54_13_366843_.jpg -1
Image_03_54_06_697809_.jpg -1
Image_03_53_40_552820_.jpg 1
Image_03_53_23_347285_.jpg 1
Image_03_53_21_690339_.jpg 1
Image_03_50_09_506558_.jpg -1
Image_03_50_02_878016_.jpg -1
Image_03_49_49_054393_.jpg -1
Image_03_49_26_889450_.jpg -1
Image_03_48_22_938200_.jpg -1
Image_03_48_15_715889_.jpg -1
Image_03_48_06_316359_.jpg -1
Image_03_47_30_703646_.jpg 1
Image_03_47_11_363791_.jpg -1
Image_03_47_01_967235_.jpg -1
Image_03_46_54_799301_.jpg -1
Image_03_46_53_695987_.jpg -1
Image_03_46_13_090931_.jpg -1
Image_03_45_54_315987_.jpg -1
Image_03_45_46_518134_.jpg -1
Image_03_45_41_024260_.jpg -1
Image_03_44_25_533170_.jpg -1
Image_03_42_46_486039_.jpg -1
Image_03_42_37_116429_.jpg -1
Image_03_42_19_457208_.jpg -1
Image_03_42_06_728123_.jpg -1
Image_03_41_56_200440_.jpg -1
Image_03_41_54_547682_.jpg -1
Image_03_41_49_528441_.jpg -1
Image_03_41_43_972876_.jpg -1
Image_03_41_41_209742_.jpg -1
Image_03_41_22_973935_.jpg -1
Image_03_40_13_332116_.jpg -1
Image_03_39_37_554713_.jpg -1
Image_03_39_21_262046_.jpg -1
Image_03_37_57_763904_.jpg 1
Image_03_37_53_274187_.jpg -1
Image_03_35_09_347938_.jpg -1
Image_03_35_07_671455_.jpg -1
Image_03_34_49_682340_.jpg -1
Image_03_34_14_388278_.jpg -1
Image_03_33_58_138290_.jpg -1
Image_03_33_15_747315_.jpg -1
Image_03_33_12_364061_.jpg -1
Image_03_33_00_568951_.jpg -1
Image_03_32_56_626585_.jpg -1
Image_03_32_44_912342_.jpg -1
Image_03_32_24_176777_.jpg 1
Image_03_32_15_842961_.jpg -1
Image_03_32_14_726040_.jpg -1
Image_03_31_42_786899_.jpg -1
Image_03_31_17_937253_.jpg -1
Image_03_30_52_094730_.jpg -1
Image_03_30_42_947490_.jpg -1
Image_03_30_34_420828_.jpg -1
Image_03_30_31_572090_.jpg -1
Image_03_28_08_429413_.jpg -1
Image_03_27_48_869065_.jpg -1
Image_03_27_41_073741_.jpg -1
Image_03_27_37_717763_.jpg -1
Image_03_27_31_528421_.jpg -1
Image_03_27_26_433215_.jpg -1
Image_03_27_25_882012_.jpg -1
Image_03_27_05_696250_.jpg 1
Image_03_26_41_597155_.jpg 1
Image_03_26_13_972966_.jpg -1
Image_03_25_47_606468_.jpg -1
Image_03_25_45_933140_.jpg -1
Image_03_25_08_263658_.jpg -1
Image_03_24_55_330896_.jpg -1
Image_03_24_41_162442_.jpg -1
Image_03_24_37_841486_.jpg -1
Image_03_24_37_286630_.jpg -1
Image_03_24_31_736903_.jpg -1
Image_03_24_22_215331_.jpg -1
Image_03_24_12_054229_.jpg -1
Image_03_23_58_054059_.jpg -1
Image_03_23_42_922356_.jpg -1
Image_03_23_38_946594_.jpg -1
Image_03_23_32_181629_.jpg -1
Image_03_23_04_941432_.jpg -1
Image_03_23_03_814116_.jpg -1
Image_03_22_44_432060_.jpg -1
Image_03_22_15_135765_.jpg -1
Image_03_22_09_499286_.jpg -1
Image_03_22_02_738836_.jpg -1
Image_03_21_46_932932_.jpg -1
Image_03_21_38_508999_.jpg -1
Image_03_21_31_804033_.jpg 1
Image_03_21_08_245358_.jpg -1
Image_03_21_03_752368_.jpg -1
Image_03_21_02_051892_.jpg -1
Image_03_20_58_634539_.jpg -1
Image_03_20_14_699907_.jpg -1
Image_03_20_13_565724_.jpg -1
Image_03_20_12_439585_.jpg 1
Image_03_20_06_808909_.jpg 1
Image_03_19_54_959545_.jpg -1
Image_03_19_49_901093_.jpg -1
Image_03_19_31_735362_.jpg -1
Image_03_19_14_694728_.jpg -1
Image_03_19_07_288738_.jpg -1
Image_03_18_54_849521_.jpg -1
Image_03_18_35_541421_.jpg -1
Image_03_18_31_008142_.jpg -1
Image_03_18_27_035855_.jpg -1
Image_03_18_00_375113_.jpg -1
Image_03_17_58_112938_.jpg -1
Image_03_17_57_559547_.jpg -1
Image_03_17_41_110513_.jpg -1
Image_03_17_38_874764_.jpg 1
Image_03_17_38_297844_.jpg 1
Image_03_17_24_108316_.jpg -1
Image_03_16_44_085143_.jpg -1
Image_03_16_40_160862_.jpg -1
Image_03_16_39_026859_.jpg -1
Image_03_15_57_961320_.jpg -1
Image_03_15_20_484314_.jpg -1
Image_03_15_04_948785_.jpg -1
Image_03_14_31_389350_.jpg -1
Image_03_14_05_419203_.jpg -1
Image_03_14_04_300210_.jpg -1
Image_03_13_54_676433_.jpg -1
Image_03_13_54_123811_.jpg -1
Image_03_12_54_925045_.jpg 1
Image_03_12_39_885810_.jpg -1
Image_03_11_42_969777_.jpg -1
Image_03_11_26_689845_.jpg 1
Image_03_10_02_808296_.jpg 1
Image_03_09_56_582138_.jpg 1
Image_03_09_47_022913_.jpg -1
Image_03_09_27_263642_.jpg -1
Image_03_09_11_439968_.jpg -1
Image_03_09_09_723279_.jpg -1
Image_03_09_06_227207_.jpg -1
Image_03_08_36_654470_.jpg 1
Image_03_06_27_290267_.jpg -1
Image_03_06_15_438593_.jpg -1
Image_03_06_09_356636_.jpg -1
Image_03_04_20_284528_.jpg -1
Image_03_04_15_855782_.jpg -1
Image_03_03_43_128707_.jpg -1
Image_03_03_37_025439_.jpg -1
Image_03_03_19_160837_.jpg -1
Image_03_03_18_606932_.jpg -1
Image_03_02_50_914000_.jpg -1
Image_03_02_48_150049_.jpg -1
Image_03_02_25_330046_.jpg -1
Image_03_02_21_448055_.jpg -1
Image_03_01_49_837589_.jpg -1
Image_03_01_37_471784_.jpg -1
Image_03_01_24_651393_.jpg -1
Image_03_01_24_080450_.jpg -1
Image_02_59_16_998518_.jpg -1
Image_02_59_13_020746_.jpg -1
Image_02_58_18_397238_.jpg -1
Image_02_58_12_276683_.jpg -1
Image_02_57_50_330083_.jpg 1
Image_02_57_37_946170_.jpg 1
Image_02_56_22_848299_.jpg 1
Image_02_56_21_724701_.jpg 1
Image_02_56_16_178316_.jpg 1
Image_02_56_13_344489_.jpg 1
Image_02_55_58_750539_.jpg -1
Image_02_55_51_997599_.jpg -1
Image_02_55_46_307961_.jpg -1
Image_02_55_27_146239_.jpg -1
Image_02_55_11_289808_.jpg 1
Image_02_54_42_052165_.jpg 1
Image_02_53_55_993072_.jpg 1
Image_02_53_35_624045_.jpg 1
Image_02_53_11_990838_.jpg -1
Image_02_53_09_723002_.jpg 1
Image_02_53_02_410836_.jpg 1
Image_02_52_55_608767_.jpg -1
Image_02_51_17_679662_.jpg -1
Image_02_51_16_552271_.jpg -1
Image_02_51_11_494108_.jpg 1
Image_02_50_33_164686_.jpg -1
Image_02_50_25_790871_.jpg 1
Image_02_50_24_651529_.jpg 1
Image_02_50_19_585586_.jpg 1
Image_02_50_00_413463_.jpg -1
Image_02_49_56_957700_.jpg -1
Image_02_49_49_708675_.jpg 1
Image_02_49_44_115918_.jpg 1
Image_02_49_22_386188_.jpg 1
Image_02_49_21_246092_.jpg -1
Image_02_48_17_572782_.jpg -1
Image_02_47_48_691611_.jpg -1
Image_02_47_38_558397_.jpg -1
Image_02_46_20_366557_.jpg 1
Image_02_46_15_817450_.jpg 1
Image_02_45_57_308693_.jpg 1
Image_02_45_47_850305_.jpg 1
Image_02_45_47_295497_.jpg 1
Image_02_45_43_349355_.jpg 1
Image_02_45_14_601807_.jpg 1
Image_02_45_00_533334_.jpg -1
Image_02_44_50_964072_.jpg 1
Image_02_44_37_977486_.jpg 1
Image_02_43_49_431105_.jpg 1
Image_02_43_39_235837_.jpg 1
Image_02_43_31_099676_.jpg -1
Image_02_43_13_199059_.jpg 1
Image_02_43_05_301184_.jpg -1
Image_02_43_00_835810_.jpg -1
Image_02_42_55_940565_.jpg -1
Image_02_42_51_288828_.jpg -1
Image_02_42_38_897553_.jpg -1
Image_02_42_36_087628_.jpg 1
Image_02_42_24_179685_.jpg -1
Image_02_41_40_294026_.jpg -1
Image_02_41_36_939976_.jpg 1
Image_02_41_22_919704_.jpg 1
Image_02_40_56_584536_.jpg -1
Image_02_40_56_013925_.jpg -1
Image_02_40_41_962861_.jpg -1
Image_02_40_37_460823_.jpg -1
Image_02_40_24_467937_.jpg -1
Image_02_40_21_662387_.jpg -1
Image_02_40_21_092220_.jpg -1
Image_02_40_18_842299_.jpg -1
Image_02_40_16_040713_.jpg -1
Image_02_40_11_494771_.jpg -1
Image_02_39_48_339871_.jpg -1
Image_02_39_12_250862_.jpg -1
Image_02_39_08_260720_.jpg -1
Image_02_39_04_334854_.jpg -1
Image_02_39_01_511765_.jpg -1
Image_02_38_37_241682_.jpg -1
Image_02_38_28_767136_.jpg -1
Image_02_38_24_819602_.jpg -1
Image_02_38_00_219926_.jpg -1
Image_02_37_50_123083_.jpg -1
Image_02_37_40_514892_.jpg -1
Image_02_37_30_935119_.jpg -1
Image_02_37_28_728016_.jpg -1
Image_02_37_27_584289_.jpg -1
Image_02_36_37_099383_.jpg -1
Image_02_36_19_734616_.jpg -1
Image_02_36_08_422881_.jpg -1
Image_02_35_51_214975_.jpg -1
Image_02_35_48_383154_.jpg -1
Image_02_35_38_878649_.jpg -1
Image_02_35_32_670974_.jpg 1
Image_02_35_30_405626_.jpg -1
Image_02_35_24_225426_.jpg -1
Image_02_35_21_422192_.jpg -1
Image_02_35_19_202850_.jpg -1
Image_02_35_15_288164_.jpg -1
Image_02_34_46_590989_.jpg -1
Image_02_34_45_839463_.jpg -1
Image_02_34_45_465342_.jpg -1
Image_02_34_30_197932_.jpg 1
Image_02_34_29_745964_.jpg -1
Image_02_34_01_082848_.jpg -1
Image_02_33_57_704792_.jpg -1
Image_02_33_23_627369_.jpg -1
Image_02_32_53_792458_.jpg 1
Image_02_32_45_374163_.jpg -1
Image_02_29_30_563092_.jpg -1
Image_02_29_20_455813_.jpg -1
Image_02_29_06_792657_.jpg -1
Image_02_28_58_607088_.jpg -1
Image_02_28_50_163120_.jpg 1
Image_02_28_31_055754_.jpg 1
Image_02_28_18_193360_.jpg -1
Image_02_27_53_603222_.jpg -1
Image_02_27_46_313736_.jpg -1
Image_02_27_42_919757_.jpg -1
Image_02_27_28_298198_.jpg -1
Image_02_26_54_281282_.jpg 1
Image_02_26_50_695630_.jpg -1
Image_02_26_47_333811_.jpg -1
Image_02_26_41_150329_.jpg -1
Image_02_26_36_664773_.jpg -1
Image_02_26_22_085887_.jpg -1
Image_02_26_21_534527_.jpg -1
Image_02_26_18_158191_.jpg -1
Image_02_26_08_041946_.jpg -1
Image_02_25_59_659846_.jpg -1
Image_02_25_59_084762_.jpg -1
Image_02_25_58_529079_.jpg -1
Image_02_25_55_162977_.jpg -1
Image_02_25_54_035661_.jpg -1
Image_02_25_43_977807_.jpg -1
Image_02_25_33_401259_.jpg -1
Image_02_25_31_200302_.jpg -1
Image_02_25_28_936615_.jpg -1
Image_02_25_12_717195_.jpg -1
Image_02_24_54_398623_.jpg -1
Image_02_24_42_621110_.jpg -1
Image_02_24_37_046363_.jpg -1
Image_02_24_27_456590_.jpg -1
Image_02_24_05_638748_.jpg -1
Image_02_24_04_495694_.jpg -1
Image_02_23_14_575065_.jpg -1
Image_02_23_12_330343_.jpg -1
Image_02_23_10_627198_.jpg -1
Image_02_23_04_437029_.jpg -1
Image_02_22_58_285395_.jpg -1
Image_02_22_42_098275_.jpg -1
Image_02_22_39_842618_.jpg -1
Image_02_22_35_920720_.jpg -1
Image_02_22_26_855319_.jpg -1
Image_02_22_23_460170_.jpg -1
Image_02_22_21_220740_.jpg -1
Image_02_22_19_538550_.jpg -1
Image_02_22_13_941721_.jpg -1
Image_02_21_42_946601_.jpg -1
Image_02_21_42_394039_.jpg -1
Image_02_21_18_461875_.jpg -1
Image_02_21_16_631893_.jpg -1
Image_02_20_48_211823_.jpg -1
Image_02_20_43_747131_.jpg -1
Image_02_20_37_013031_.jpg -1
Image_02_20_35_335688_.jpg -1
Image_02_20_23_626328_.jpg -1
Image_02_20_20_194098_.jpg -1
Image_02_20_08_776829_.jpg 1
Image_02_20_03_350009_.jpg -1
Image_02_19_58_167174_.jpg -1
Image_02_19_52_102515_.jpg -1
Image_02_19_50_881733_.jpg 1
Image_02_19_49_292310_.jpg -1
Image_02_19_38_137744_.jpg -1
Image_02_19_07_278898_.jpg -1
Image_02_19_03_376653_.jpg -1
Image_02_18_53_597380_.jpg -1
Image_02_18_51_377591_.jpg -1
Image_02_18_50_480739_.jpg -1
Image_02_18_47_716144_.jpg -1
Image_02_18_40_414621_.jpg -1
Image_02_18_35_972909_.jpg -1
Image_02_18_28_057659_.jpg -1
Image_02_17_51_928310_.jpg -1
Image_02_16_58_387122_.jpg -1
Image_02_16_36_490072_.jpg -1
Image_02_15_38_816986_.jpg -1
Image_02_15_10_192491_.jpg -1
Image_02_15_07_523423_.jpg -1
Image_02_15_05_864233_.jpg -1
Image_02_15_04_759511_.jpg -1
Image_02_14_49_453046_.jpg -1
Image_02_14_43_841499_.jpg -1
Image_02_14_38_753733_.jpg -1
Image_02_14_02_945605_.jpg -1
Image_02_13_38_972361_.jpg -1
Image_02_13_15_261784_.jpg -1
Image_02_13_11_881392_.jpg -1
Image_02_12_47_233994_.jpg -1
Image_02_12_44_576131_.jpg -1
Image_02_12_41_140627_.jpg -1
Image_02_12_24_678738_.jpg 1
Image_02_12_21_874716_.jpg -1
Image_02_12_18_170447_.jpg -1
Image_02_12_04_657253_.jpg -1
Image_02_12_02_977583_.jpg -1
Image_02_11_48_385164_.jpg -1
Image_02_11_34_719160_.jpg -1
Image_02_11_25_783521_.jpg -1
Image_02_11_16_397074_.jpg -1
Image_02_11_15_249914_.jpg -1
Image_02_11_12_851447_.jpg -1
Image_02_11_09_637496_.jpg -1
Image_02_10_35_614752_.jpg -1
Image_02_10_06_566808_.jpg -1
Image_02_09_57_585153_.jpg -1
Image_02_09_54_228255_.jpg -1
Image_02_09_50_284819_.jpg -1
Image_02_09_20_084697_.jpg -1
Image_02_09_15_043557_.jpg -1
Image_02_08_51_912413_.jpg -1
Image_02_08_50_329810_.jpg -1
Image_02_08_44_583144_.jpg -1
Image_02_08_40_693276_.jpg -1
Image_02_08_30_060963_.jpg -1
Image_02_08_27_228358_.jpg 1
Image_02_08_22_301031_.jpg -1
Image_02_08_20_538688_.jpg 1
Image_02_08_18_911601_.jpg -1
Image_02_08_16_618326_.jpg -1
Image_02_07_38_527662_.jpg -1
Image_02_07_38_300085_.jpg -1
Image_02_07_20_297497_.jpg -1
Image_02_07_12_406031_.jpg -1
Image_02_07_09_583173_.jpg -1
Image_02_07_08_459280_.jpg -1
Image_02_06_40_403325_.jpg -1
Image_02_06_26_407102_.jpg -1
Image_02_06_24_746777_.jpg -1
Image_02_06_11_604964_.jpg -1
Image_02_06_01_860572_.jpg -1
Image_02_05_19_272382_.jpg -1
Image_02_05_16_480695_.jpg -1
Image_02_04_32_659234_.jpg -1
Image_02_04_25_363417_.jpg -1
Image_02_04_17_511960_.jpg -1
Image_02_04_14_701868_.jpg -1
Image_02_04_10_260689_.jpg -1
Image_02_04_03_616597_.jpg -1
Image_02_03_46_200961_.jpg -1
Image_02_03_43_365392_.jpg -1
Image_02_03_38_890009_.jpg -1
Image_02_03_29_936060_.jpg -1
Image_02_03_27_692343_.jpg -1
Image_02_03_07_981623_.jpg -1
Image_02_03_05_980424_.jpg -1
Image_02_02_59_559430_.jpg -1
Image_02_02_51_455986_.jpg -1
Image_02_02_30_497257_.jpg -1
Image_02_02_18_181019_.jpg -1
Image_02_01_59_846230_.jpg -1
Image_02_01_39_112238_.jpg -1
Image_02_01_38_023923_.jpg -1
Image_02_01_36_325022_.jpg -1
Image_02_01_30_700367_.jpg -1
Image_02_01_27_863409_.jpg -1
Image_02_01_22_270397_.jpg -1
Image_02_01_09_366628_.jpg 1
Image_02_01_08_304043_.jpg 1
Image_02_00_48_060652_.jpg -1
Image_02_00_28_348669_.jpg -1
Image_02_00_25_610487_.jpg -1
Image_02_00_16_615140_.jpg -1
Image_02_00_14_942925_.jpg -1
Image_02_00_11_568054_.jpg -1
Image_02_00_08_175650_.jpg -1
Image_02_00_07_049606_.jpg -1
Image_02_00_06_469068_.jpg -1
Image_01_59_44_261994_.jpg -1
Image_01_59_35_737886_.jpg -1
Image_01_59_28_387511_.jpg -1
Image_01_59_23_587532_.jpg -1
Image_01_59_18_786553_.jpg -1
Image_01_59_11_408173_.jpg -1
Image_01_59_10_078501_.jpg -1
Image_01_59_09_504916_.jpg -1
Image_01_58_40_375003_.jpg -1
Image_01_58_37_034979_.jpg 1
Image_01_58_36_388539_.jpg -1
Image_01_58_32_936617_.jpg -1
Image_01_58_19_510704_.jpg -1
Image_01_58_15_550838_.jpg 1
Image_01_58_08_801898_.jpg -1
Image_01_58_05_138873_.jpg -1
Image_01_58_04_031486_.jpg 1
Image_01_57_30_082609_.jpg -1
Image_01_57_23_849195_.jpg -1
Image_01_57_22_154398_.jpg -1
Image_01_56_57_499315_.jpg -1
Image_01_56_54_655110_.jpg -1
Image_01_56_54_178744_.jpg -1
Image_01_56_49_705370_.jpg -1
Image_01_56_31_115633_.jpg -1
Image_01_56_10_814277_.jpg -1
Image_01_56_00_712416_.jpg 1
Image_01_55_54_003865_.jpg 1
Image_01_55_52_891352_.jpg 1
Image_01_55_50_631180_.jpg 1
Image_01_55_39_985976_.jpg -1
Image_01_55_20_900506_.jpg -1
Image_01_55_14_722553_.jpg -1
Image_01_55_04_649716_.jpg -1
Image_01_54_51_176819_.jpg -1
Image_01_54_48_350271_.jpg -1
Image_01_54_46_083932_.jpg -1
Image_01_54_13_020208_.jpg 1
Image_01_54_02_944925_.jpg 1
Image_01_53_27_690686_.jpg 1
Image_01_53_24_907571_.jpg 1
Image_01_53_07_515837_.jpg 1
Image_01_53_04_151149_.jpg 1
Image_01_53_02_470380_.jpg 1
Image_01_52_56_137251_.jpg -1
Image_01_52_52_240730_.jpg -1
Image_01_52_51_135587_.jpg -1
Image_01_52_22_524837_.jpg -1
Image_01_51_27_543824_.jpg -1
Image_01_50_12_827848_.jpg 1
Image_01_50_06_102994_.jpg 1
Image_01_50_02_191099_.jpg 1
Image_01_50_01_638359_.jpg 1
Image_01_49_50_969702_.jpg -1
Image_01_48_59_445281_.jpg -1
Image_01_48_22_429655_.jpg -1
Image_01_47_14_633576_.jpg -1
Image_01_46_48_797812_.jpg -1
Image_01_43_24_681830_.jpg 1
Image_01_41_05_249490_.jpg -1
Image_01_40_48_883546_.jpg -1
Image_01_40_47_756961_.jpg -1
Image_01_40_41_597613_.jpg -1
Image_01_40_37_210291_.jpg -1
Image_01_40_09_036483_.jpg -1
Image_01_39_36_426238_.jpg -1
Image_01_38_38_596045_.jpg -1
Image_01_35_23_246638_.jpg -1
Image_01_34_33_840948_.jpg -1
Image_01_34_27_647203_.jpg -1
Image_01_34_26_503543_.jpg -1
Image_01_34_19_264558_.jpg -1
Image_01_31_29_424444_.jpg -1
Image_01_31_04_520265_.jpg -1
Image_01_30_53_247520_.jpg -1
Image_01_30_20_172205_.jpg -1
Image_01_28_27_956240_.jpg 1
Image_01_28_26_837681_.jpg -1
Image_01_27_30_250949_.jpg -1
Image_01_27_02_102890_.jpg -1
Image_01_26_58_089279_.jpg -1
Image_01_26_46_203598_.jpg 1
Image_01_26_43_947024_.jpg 1
Image_01_26_40_020614_.jpg 1
Image_01_26_18_647620_.jpg 1
Image_01_25_58_398114_.jpg 1
Image_01_25_56_718989_.jpg 1
Image_01_25_56_155337_.jpg 1
Image_01_24_34_046980_.jpg -1
Image_01_24_08_731559_.jpg 1
Image_01_24_03_672652_.jpg 1
Image_01_24_01_999506_.jpg 1
Image_01_23_51_945265_.jpg 1
Image_01_23_21_059993_.jpg -1
Image_01_23_12_022498_.jpg -1
Image_01_22_57_920814_.jpg 1
Image_01_22_43_902572_.jpg 1
Image_01_22_33_835523_.jpg 1
Image_01_22_09_681263_.jpg 1
Image_01_20_54_615900_.jpg -1
Image_01_20_49_498946_.jpg -1
Image_01_20_41_045609_.jpg -1
Image_01_20_30_410953_.jpg -1
Image_01_20_18_613755_.jpg -1
Image_01_20_12_506112_.jpg -1
Image_01_19_58_386073_.jpg -1
Image_01_19_52_718096_.jpg -1
Image_01_19_50_668454_.jpg 1
Image_01_19_27_682521_.jpg 1
Image_01_19_17_938182_.jpg -1
Image_01_19_13_989427_.jpg -1
Image_01_19_08_332542_.jpg -1
Image_01_19_04_998470_.jpg -1
Image_01_19_03_314221_.jpg -1
Image_01_19_02_178623_.jpg -1
Image_01_17_59_352565_.jpg -1
Image_01_17_41_973261_.jpg -1
Image_01_17_38_584423_.jpg -1
Image_01_17_18_926854_.jpg -1
Image_01_17_02_116596_.jpg -1
Image_01_16_52_715761_.jpg -1
Image_01_16_48_812220_.jpg -1
Image_01_16_48_253552_.jpg -1
Image_01_16_33_084687_.jpg -1
Image_01_16_14_506543_.jpg -1
Image_01_16_13_927089_.jpg -1
Image_01_16_02_170565_.jpg 1
Image_01_15_59_360182_.jpg -1
Image_01_15_56_591545_.jpg 1
Image_01_15_49_825393_.jpg -1
Image_01_15_44_761704_.jpg -1
Image_01_15_41_917187_.jpg -1
Image_01_15_37_369384_.jpg -1
Image_01_15_23_363662_.jpg -1
Image_01_15_20_578993_.jpg -1
Image_01_15_16_114967_.jpg 1
Image_01_15_14_991305_.jpg -1
Image_01_15_05_939364_.jpg -1
Image_01_13_55_865495_.jpg -1
Image_01_13_50_220120_.jpg -1
Image_01_13_42_301122_.jpg -1
Image_01_13_13_050308_.jpg -1
Image_01_13_04_630280_.jpg -1
Image_01_13_01_231778_.jpg -1
Image_01_12_48_379575_.jpg -1
Image_01_12_41_686758_.jpg -1
Image_01_12_37_171920_.jpg -1
Image_01_12_28_848062_.jpg -1
Image_01_11_33_330716_.jpg -1
Image_01_11_11_314332_.jpg -1
Image_01_10_28_698657_.jpg -1
Image_01_10_24_096385_.jpg -1
Image_01_10_07_273071_.jpg -1
Image_01_09_38_655019_.jpg -1
Image_01_09_02_724988_.jpg -1
Image_01_08_18_851963_.jpg -1
Image_01_08_16_596530_.jpg -1
Image_01_08_03_149380_.jpg -1
Image_01_08_00_354186_.jpg -1
Image_01_07_24_557325_.jpg -1
Image_01_06_17_342151_.jpg -1
Image_01_06_10_607621_.jpg -1
Image_01_05_46_955692_.jpg -1
Image_01_05_36_339867_.jpg -1
Image_01_04_49_595642_.jpg -1
Image_01_04_41_096464_.jpg -1
Image_01_04_37_683740_.jpg -1
Image_01_04_29_785078_.jpg -1
Image_01_04_23_612516_.jpg -1
Image_01_04_06_303807_.jpg -1
Image_01_04_01_829331_.jpg -1
Image_01_03_46_163994_.jpg -1
Image_01_03_37_754860_.jpg -1
Image_01_03_32_785526_.jpg -1
Image_01_03_22_178590_.jpg -1
Image_01_03_03_745378_.jpg -1
Image_01_02_53_549679_.jpg -1
Image_01_02_37_877784_.jpg -1
Image_01_02_20_557668_.jpg 1
Image_01_02_14_916853_.jpg -1
Image_01_02_13_794686_.jpg -1
Image_01_02_13_247781_.jpg -1
Image_01_01_55_308105_.jpg -1
Image_01_00_21_355921_.jpg -1
Image_01_00_07_250626_.jpg -1
Image_00_59_35_690642_.jpg -1
Image_00_59_19_507518_.jpg -1
Image_00_59_08_293050_.jpg -1
Image_00_59_03_808611_.jpg -1
Image_00_58_54_241285_.jpg -1
Image_00_58_43_577783_.jpg -1
Image_00_58_32_961623_.jpg -1
Image_00_58_26_743849_.jpg -1
Image_00_58_17_141709_.jpg -1
Image_00_57_47_934161_.jpg -1
Image_00_56_59_504409_.jpg 1
Image_00_56_40_969102_.jpg -1
Image_00_56_29_712614_.jpg -1
Image_00_56_26_895083_.jpg -1
Image_00_56_17_376799_.jpg -1
Image_00_56_10_054370_.jpg -1
Image_00_55_57_190917_.jpg -1
Image_00_55_54_384033_.jpg -1
Image_00_55_40_877853_.jpg -1
Image_00_55_34_101724_.jpg -1
Image_00_55_29_624719_.jpg -1
Image_00_55_14_975507_.jpg -1
Image_00_55_00_411516_.jpg -1
Image_00_54_45_822889_.jpg -1
Image_00_54_45_267928_.jpg -1
Image_00_54_15_019535_.jpg -1
Image_00_53_13_878653_.jpg -1
Image_00_53_07_141710_.jpg -1
Image_00_52_31_216577_.jpg -1
Image_00_52_29_544980_.jpg -1
Image_00_51_48_049308_.jpg -1
Image_00_51_37_990046_.jpg -1
Image_00_51_35_736697_.jpg -1
Image_00_51_31_767121_.jpg -1
Image_00_51_29_506629_.jpg -1
Image_00_51_12_045813_.jpg -1
Image_00_50_42_733515_.jpg -1
Image_00_50_34_135127_.jpg -1
Image_00_50_30_078715_.jpg -1
Image_00_50_24_861341_.jpg -1
Image_00_50_23_702049_.jpg -1
Image_00_50_09_586816_.jpg -1
Image_00_50_09_014511_.jpg -1
Image_00_50_06_196133_.jpg -1
Image_00_50_03_944803_.jpg -1
Image_00_50_01_156581_.jpg -1
Image_00_49_54_958600_.jpg -1
Image_00_49_52_141797_.jpg -1
Image_00_49_48_238151_.jpg -1
Image_00_49_22_922731_.jpg -1
Image_00_49_22_352963_.jpg -1
Image_00_49_10_524883_.jpg 1
Image_00_48_59_261614_.jpg -1
Image_00_44_39_360017_.jpg -1
Image_00_44_21_445935_.jpg -1
Image_00_44_02_500421_.jpg -1
Image_00_43_49_693333_.jpg -1
Image_00_43_36_817375_.jpg -1
Image_00_43_34_004068_.jpg -1
Image_00_43_29_572184_.jpg -1
Image_00_43_21_790361_.jpg -1
Image_00_43_07_759971_.jpg -1
Image_00_43_00_485468_.jpg -1
Image_00_42_51_029031_.jpg -1
Image_00_42_41_439577_.jpg -1
Image_00_42_34_724504_.jpg -1
Image_00_42_31_959812_.jpg -1
Image_00_42_12_914828_.jpg -1
Image_00_42_09_545410_.jpg -1
Image_00_42_01_172846_.jpg -1
Image_00_41_58_969075_.jpg -1
Image_00_41_53_361531_.jpg -1
Image_00_41_52_802367_.jpg -1
Image_00_41_43_304118_.jpg -1
Image_00_41_39_940995_.jpg -1
Image_00_41_28_235535_.jpg -1
Image_00_41_10_314104_.jpg -1
Image_00_40_47_379739_.jpg -1
Image_00_40_45_146809_.jpg -1
Image_00_40_40_155766_.jpg -1
Image_00_40_32_334610_.jpg -1
Image_00_40_28_451643_.jpg -1
Image_00_40_24_018647_.jpg -1
Image_00_40_19_007791_.jpg -1
Image_00_40_08_726747_.jpg -1
Image_00_40_02_950471_.jpg -1
Image_00_40_01_226424_.jpg -1
Image_00_39_52_588221_.jpg -1
Image_00_39_41_299989_.jpg -1
Image_00_39_21_628873_.jpg -1
Image_00_38_35_851202_.jpg -1
Image_00_38_19_946456_.jpg -1
Image_00_38_01_367619_.jpg -1
Image_00_37_57_968251_.jpg -1
Image_00_37_56_288214_.jpg -1
Image_00_37_55_146086_.jpg -1
Image_00_37_35_449759_.jpg -1
Image_00_37_11_216448_.jpg -1
Image_00_36_59_423698_.jpg -1
Image_00_36_57_204533_.jpg -1
Image_00_36_48_771477_.jpg -1
Image_00_36_48_217396_.jpg -1
Image_00_36_47_645155_.jpg -1
Image_00_36_44_824467_.jpg 1
Image_00_36_41_443410_.jpg 1
Image_00_36_30_702448_.jpg -1
Image_00_36_28_996699_.jpg 1
Image_00_36_11_139740_.jpg 1
Image_00_36_07_729221_.jpg -1
Image_00_35_58_118466_.jpg 1
Image_00_35_49_166857_.jpg 1
Image_00_35_45_251941_.jpg -1
Image_00_35_42_488133_.jpg 1
Image_00_35_24_085488_.jpg 1
Image_00_35_23_506631_.jpg 1
Image_00_35_22_411988_.jpg -1
Image_00_35_13_039627_.jpg -1
Image_00_35_00_752780_.jpg -1
Image_00_34_49_569564_.jpg -1
Image_00_34_49_016033_.jpg -1
Image_00_34_24_977031_.jpg -1
Image_00_34_15_447031_.jpg -1
Image_00_34_12_059618_.jpg -1
Image_00_33_52_903660_.jpg -1
Image_00_33_08_373894_.jpg 1
Image_00_33_04_395657_.jpg -1
Image_00_32_58_200789_.jpg -1
Image_00_32_50_857677_.jpg 1
Image_00_32_49_156414_.jpg 1
Image_00_32_41_361204_.jpg 1
Image_00_32_01_408252_.jpg -1
Image_00_31_26_603770_.jpg 1
Image_00_31_21_510801_.jpg 1
Image_00_31_10_802746_.jpg 1
Image_00_31_05_232076_.jpg 1
Image_00_30_39_979975_.jpg -1
Image_00_30_33_754285_.jpg 1
Image_00_30_30_349723_.jpg -1
Image_00_30_13_958471_.jpg -1
Image_00_30_12_846377_.jpg -1
Image_00_30_11_747008_.jpg -1
Image_00_29_59_967686_.jpg -1
Image_00_29_58_822301_.jpg -1
Image_00_29_46_335781_.jpg -1
Image_00_29_44_651073_.jpg -1
Image_00_29_29_361698_.jpg -1
Image_00_29_15_854862_.jpg -1
Image_00_27_10_997504_.jpg 1
Image_00_27_03_663600_.jpg 1
Image_00_27_01_959664_.jpg -1
Image_00_25_42_475011_.jpg 1
Image_00_25_40_261867_.jpg -1
Image_00_24_12_043617_.jpg 1
Image_00_24_00_212317_.jpg 1
Image_00_23_59_061202_.jpg -1
Image_00_23_52_341199_.jpg -1
Image_00_23_50_080904_.jpg 1
Image_00_23_24_582391_.jpg 1
Image_00_23_12_265859_.jpg 1
Image_00_22_52_421204_.jpg -1
Image_00_22_12_839315_.jpg 1
Image_00_22_11_133060_.jpg -1
Image_00_22_06_029310_.jpg -1
Image_00_22_01_541385_.jpg -1
Image_00_21_05_085120_.jpg 1
Image_00_21_01_114838_.jpg -1
Image_00_20_47_570563_.jpg 1
Image_00_20_37_506412_.jpg 1
Image_00_20_12_739576_.jpg 1
Image_00_20_12_166967_.jpg 1
Image_00_20_08_236739_.jpg 1
Image_00_20_06_557902_.jpg 1
Image_00_19_45_132618_.jpg -1
Image_00_19_38_256044_.jpg -1
Image_00_19_33_738137_.jpg -1
Image_00_19_04_448948_.jpg -1
Image_00_18_48_205472_.jpg -1
Image_00_17_50_874725_.jpg -1
Image_00_17_40_706034_.jpg -1
Image_00_17_33_412517_.jpg -1
Image_00_15_13_793301_.jpg -1
Image_00_14_54_591616_.jpg -1
Image_00_14_43_843362_.jpg -1
Image_00_14_41_029998_.jpg -1
Image_00_14_36_502778_.jpg -1
Image_00_14_32_518472_.jpg -1
Image_00_14_25_201200_.jpg -1
Image_00_13_52_098876_.jpg 1
Image_00_13_47_042639_.jpg -1
Image_00_13_30_093286_.jpg -1
Image_00_13_10_981802_.jpg -1
Image_00_13_04_780149_.jpg -1
Image_00_11_37_177929_.jpg -1
Image_00_11_35_522429_.jpg -1
Image_00_09_54_295096_.jpg -1
Image_00_09_45_185125_.jpg -1
Image_00_09_39_503123_.jpg -1
Image_00_09_33_808346_.jpg -1
Image_00_09_29_818297_.jpg -1
Image_00_09_12_773169_.jpg -1
Image_00_09_10_482920_.jpg -1
Image_00_06_31_665999_.jpg -1
Image_00_06_03_855995_.jpg -1
Image_00_05_44_837852_.jpg -1
Image_00_05_34_825221_.jpg -1
Image_00_05_28_682573_.jpg -1
Image_00_05_23_581208_.jpg -1
Image_00_05_18_030014_.jpg -1
Image_00_05_06_266160_.jpg -1
Image_00_04_58_902663_.jpg -1
Image_00_04_37_618861_.jpg -1
Image_00_04_35_411538_.jpg -1
Image_00_04_34_836276_.jpg -1
Image_00_04_33_119187_.jpg -1
Image_00_04_08_387015_.jpg 1
Image_00_04_00_519912_.jpg -1
Image_00_02_30_139587_.jpg -1
Image_00_02_23_433423_.jpg -1
Image_00_02_22_877753_.jpg -1
Image_00_02_20_076790_.jpg -1
Image_00_00_06_887912_.jpg -1
Image_00_00_02_435568_.jpg -1